…
## Drawing many bootstrap samples

Draw repeated samples with replacement

``` r
boot_straps = 
  tibble(strap_number = 1:5000) |> 
  mutate(
    strap_sample = map(strap_number, \(i) boot_sample(df = sim_df_nonconst))
  )

boot_straps
```

    ## # A tibble: 5,000 × 2
    ##    strap_number strap_sample      
    ##           <int> <list>            
    ##  1            1 <tibble [250 × 3]>
    ##  2            2 <tibble [250 × 3]>
    ##  3            3 <tibble [250 × 3]>
    ##  4            4 <tibble [250 × 3]>
    ##  5            5 <tibble [250 × 3]>
    ##  6            6 <tibble [250 × 3]>
    ##  7            7 <tibble [250 × 3]>
    ##  8            8 <tibble [250 × 3]>
    ##  9            9 <tibble [250 × 3]>
    ## 10           10 <tibble [250 × 3]>
    ## # ℹ 4,990 more rows

Quick checks to make sure this has worked as intended. First look at a
couple of bootstrap samples.

``` r
boot_straps |> 
  slice(1:3) |> 
  mutate(strap_sample = map(strap_sample, \(s) arrange(s, x))) |> 
  pull(strap_sample)
```

    ## [[1]]
    ## # A tibble: 250 × 3
    ##         x   error       y
    ##     <dbl>   <dbl>   <dbl>
    ##  1 -1.89   1.62   -2.04  
    ##  2 -1.89   1.62   -2.04  
    ##  3 -1.21  -0.781  -2.43  
    ##  4 -1.21  -0.781  -2.43  
    ##  5 -1.00   0.832  -0.169 
    ##  6 -0.989 -1.97   -2.93  
    ##  7 -0.914 -0.908  -1.65  
    ##  8 -0.606 -0.106   0.0774
    ##  9 -0.536  0.0227  0.413 
    ## 10 -0.524 -0.536  -0.106 
    ## # ℹ 240 more rows
    ## 
    ## [[2]]
    ## # A tibble: 250 × 3
    ##         x  error       y
    ##     <dbl>  <dbl>   <dbl>
    ##  1 -1.29   1.40  -0.454 
    ##  2 -0.989 -1.97  -2.93  
    ##  3 -0.914 -0.908 -1.65  
    ##  4 -0.914 -0.908 -1.65  
    ##  5 -0.805  0.292 -0.123 
    ##  6 -0.805  0.292 -0.123 
    ##  7 -0.665 -0.544 -0.539 
    ##  8 -0.641 -0.416 -0.338 
    ##  9 -0.606 -0.106  0.0774
    ## 10 -0.606 -0.106  0.0774
    ## # ℹ 240 more rows
    ## 
    ## [[3]]
    ## # A tibble: 250 × 3
    ##         x  error      y
    ##     <dbl>  <dbl>  <dbl>
    ##  1 -1.89   1.62  -2.04 
    ##  2 -1.89   1.62  -2.04 
    ##  3 -1.29   1.40  -0.454
    ##  4 -1.29   1.40  -0.454
    ##  5 -1.00   0.832 -0.169
    ##  6 -0.914 -0.908 -1.65 
    ##  7 -0.805  0.292 -0.123
    ##  8 -0.665 -0.544 -0.539
    ##  9 -0.665 -0.544 -0.539
    ## 10 -0.665 -0.544 -0.539
    ## # ℹ 240 more rows
…
Finally, run analysis

``` r
bootstrap_results = 
  boot_straps |> 
  mutate(
    models = map(strap_sample, \(df) lm(y ~ x, data = df) ),
    results = map(models, broom::tidy)) |> 
  select(-strap_sample, -models) |> 
  unnest(results) 
bootstrap_results
```

    ## # A tibble: 10,000 × 6
    ##    strap_number term        estimate std.error statistic   p.value
    ##           <int> <chr>          <dbl>     <dbl>     <dbl>     <dbl>
    ##  1            1 (Intercept)     1.90    0.0982      19.3 2.45e- 51
    ##  2            1 x               3.14    0.0688      45.6 1.18e-122
    ##  3            2 (Intercept)     1.89    0.118       16.0 4.78e- 40
    ##  4            2 x               3.12    0.0843      37.0 5.32e-103
    ##  5            3 (Intercept)     2.06    0.0976      21.1 3.71e- 57
    ##  6            3 x               2.97    0.0690      43.1 2.89e-117
    ##  7            4 (Intercept)     2.04    0.102       20.0 9.03e- 54
    ##  8            4 x               3.03    0.0699      43.3 1.43e-117
    ##  9            5 (Intercept)     1.90    0.113       16.8 1.01e- 42
    ## 10            5 x               3.18    0.0772      41.2 7.18e-113
    ## # ℹ 9,990 more rows
…
``` r
boot_straps = 
  sim_df_nonconst |> 
  modelr::bootstrap(n = 1000)

boot_straps |> pull(strap) |> nth(1)
```

    ## <resample [250 x 3]> 186, 113, 206, 28, 86, 121, 208, 212, 30, 12, ...

``` r
boot_straps |> pull(strap) |> nth(1) |> as_tibble()
```

    ## # A tibble: 250 × 3
    ##         x  error      y
    ##     <dbl>  <dbl>  <dbl>
    ##  1  0.841 -0.125  4.40 
    ##  2  2.43  -1.16   8.14 
    ##  3  3.50   0.148 12.6  
    ##  4 -0.471 -0.262  0.326
    ##  5  1.33   0.733  6.73 
    ##  6  0.494 -0.144  3.34 
    ##  7  1.54  -2.43   4.20 
    ##  8  1.42   2.31   8.57 
    ##  9  1.42   0.978  7.23 
    ## 10  1.39  -0.406  5.76 
    ## # ℹ 240 more rows
…
