…
`crossv_mc` saves the data once and stores the indexes for each training
/ testing split using a `resample` object, and can often be treated
exactly like a dataframe. However, it’s not compatible with `gam`, so we
have to convert each training and testing dataset (and lose that nice
memory-saving stuff in the process) using the code below. \*It’s worth
noting, though, that if all the models you want to fit use `lm`, you can
skip this.

``` r
cv_df |> pull(train) |> nth(1) |> as_tibble()
```

    ## # A tibble: 176 × 3
    ##    range logratio    id
    ##    <dbl>    <dbl> <int>
    ##  1   390  -0.0504     1
    ##  2   394  -0.0510     4
    ##  3   396  -0.0599     5
    ##  4   399  -0.0596     7
    ##  5   400  -0.0399     8
    ##  6   402  -0.0294     9
    ##  7   403  -0.0395    10
    ##  8   405  -0.0476    11
    ##  9   406  -0.0604    12
    ## 10   408  -0.0312    13
    ## # ℹ 166 more rows

``` r
cv_df |> pull(test) |> nth(1) |> as_tibble()
```

    ## # A tibble: 45 × 3
    ##    range logratio    id
    ##    <dbl>    <dbl> <int>
    ##  1   391  -0.0601     2
    ##  2   393  -0.0419     3
    ##  3   397  -0.0284     6
    ##  4   412  -0.0500    16
    ##  5   421  -0.0316    22
    ##  6   424  -0.0884    24
    ##  7   426  -0.0702    25
    ##  8   427  -0.0288    26
    ##  9   436  -0.0573    32
    ## 10   445  -0.0647    38
    ## # ℹ 35 more rows
…
